<?xml version="1.0" encoding="utf-8" ?>
<svg xmlns="http://www.w3.org/2000/svg" xmlns:xlink="http://www.w3.org/1999/xlink" width="124" height="116">
	<defs>
		<clipPath id="clip_0">
			<rect x="-2245" y="-1933" width="3609" height="2634" clip-rule="evenodd"/>
		</clipPath>
	</defs>
	<g clip-path="url(#clip_0)">
		<path fill="rgb(244,129,25)" stroke="none" transform="translate(58.3135 0.000488281)" d="M16.2468 0L0 11.2038L0 114.252L16.2468 105.305L16.2468 0Z"/>
	</g>
	<defs>
		<clipPath id="clip_1">
			<rect x="0.005859375" y="33.606689" width="53.814281" height="80.65274" clip-rule="evenodd"/>
		</clipPath>
	</defs>
	<g clip-path="url(#clip_1)">
		<path fill="rgb(175,176,179)" stroke="none" transform="translate(0.000976563 33.6067)" d="M53.8193 0L53.8193 13.9926C53.8193 13.9926 21.6951 16.5214 19.6362 40.8829C19.6362 40.8829 15.1189 62.1713 53.8193 68.8863L53.8193 80.6527C53.8193 80.6527 -0.564776 75.0508 0.0044373 40.3324C0.0044373 40.3143 -0.564776 5.03323 53.8193 0"/>
	</g>
	<defs>
		<clipPath id="clip_2">
			<rect x="-2245" y="-1933" width="3609" height="2634" clip-rule="evenodd"/>
		</clipPath>
	</defs>
	<g clip-path="url(#clip_2)">
		<path fill="rgb(175,176,180)" stroke="none" transform="translate(78.4893 33.6064)" d="M0 0L0 13.067C0 13.067 10.3609 12.9279 19.0444 20.1571L9.5313 24.0591L45.3917 33.0306L45.3917 5.03323L33.1658 11.96C33.1658 11.96 22.708 0.992128 0 0"/>
	</g>
</svg>
