<?xml version="1.0" encoding="utf-8" ?>
<svg xmlns="http://www.w3.org/2000/svg" xmlns:xlink="http://www.w3.org/1999/xlink" width="36" height="33">
	<defs>
		<clipPath id="clip_0">
			<rect x="-2061" y="-2513" width="3609" height="3393" clip-rule="evenodd"/>
		</clipPath>
	</defs>
	<g clip-path="url(#clip_0)">
		<path fill="rgb(255,255,255)" stroke="none" transform="matrix(1 -8.74228e-08 -8.74228e-08 -1 0 20)" d="M0 19.204L6.398 19.204L6.398 3.55271e-15L0 3.55271e-15L0 19.204Z"/>
	</g>
	<defs>
		<clipPath id="clip_1">
			<path d="M34.8233 1.0004L9.2207 1.0004L9.2207 33L34.8233 33L34.8233 1.0004Z" clip-rule="evenodd"/>
		</clipPath>
	</defs>
	<g clip-path="url(#clip_1)">
		<path fill="rgb(255,255,255)" stroke="none" transform="matrix(1 -8.74228e-08 -8.74228e-08 -1 9.2207 33)" d="M25.594 14.318C25.552 12.598 24.13 11.204 22.398 11.204L12.32 11.204L13.924 3.844L13.924 3.36C13.924 2.718 13.602 2.078 13.28 1.602L11.516 0L0.962 10.562C0.32 11.04 0 11.844 0 12.796L0 28.796C0 30.562 1.438 32 3.194 32L17.602 32C18.874 32 20 31.202 20.476 30.078L25.28 18.718C25.288 18.704 25.286 18.688 25.292 18.674C25.296 18.668 25.302 18.672 25.304 18.664C25.636 17.882 25.602 17.742 25.602 17.742L25.602 14.842L25.602 14.466L25.602 14.398L25.602 14.318L25.594 14.318Z"/>
	</g>
</svg>
