<?xml version="1.0" encoding="utf-8" ?>
<svg xmlns="http://www.w3.org/2000/svg" xmlns:xlink="http://www.w3.org/1999/xlink" width="163" height="128">
	<defs>
		<clipPath id="clip_0">
			<rect x="-2081.2617" y="-1093.864" width="3587.3459" height="3160.9202" clip-rule="evenodd"/>
		</clipPath>
	</defs>
	<g clip-path="url(#clip_0)">
		<path fill="rgb(229,229,229)" stroke="none" transform="matrix(0.994 0 0 0.994 0.605469 0.0935059)" d="M18.7283 127.768L143.329 127.768C153.654 127.768 162.057 119.386 162.059 109.081L162.059 33.2867C162.059 22.9811 153.659 14.599 143.331 14.599L117.785 14.599L115.757 7.40007L115.698 7.14442C114.692 2.99335 110.893 0 106.601 0L55.4587 0C51.0425 0 47.2863 3.00789 46.378 7.10867L44.1536 14.599L18.7283 14.599C8.40003 14.599 0 22.9811 0 33.2867L0 109.081C0 119.386 8.40003 127.768 18.7283 127.768ZM18.7283 20.8299C11.8436 20.8299 6.24174 26.4167 6.24174 33.2867L6.24174 109.081C6.24174 115.952 11.8436 121.54 18.7283 121.54L143.329 121.54C150.213 121.54 155.813 115.951 155.813 109.081L155.813 33.2867C155.813 26.4167 150.213 20.8299 143.329 20.8299L113.056 20.8299L109.639 8.66623C109.323 7.25104 108.047 6.226 106.598 6.226L55.4562 6.226C53.9858 6.226 52.7357 7.22984 52.4158 8.66866L48.8065 20.8299L18.7283 20.8299ZM41.4119 69.411C41.4119 91.209 59.1863 108.941 81.0333 108.941C102.872 108.941 120.645 91.2042 120.645 69.411C120.645 47.6137 102.875 29.8765 81.0333 29.8765C59.1863 29.8765 41.4119 47.6113 41.4119 69.411ZM139.297 32.3901C136.114 32.3901 133.539 34.9672 133.539 38.1381C133.539 41.3114 136.114 43.8837 139.297 43.8837C142.48 43.8837 145.055 41.3114 145.055 38.1381C145.05 34.9672 142.475 32.3901 139.297 32.3901ZM81.0333 36.1031C62.6299 36.1031 47.656 51.0426 47.656 69.4062C47.656 87.7728 62.6299 102.707 81.0333 102.707C99.4337 102.707 114.401 87.768 114.401 69.4062C114.401 51.0426 99.4313 36.1031 81.0333 36.1031Z" fill-rule="evenodd"/>
	</g>
</svg>
