<?xml version="1.0" encoding="utf-8" ?>
<svg xmlns="http://www.w3.org/2000/svg" xmlns:xlink="http://www.w3.org/1999/xlink" width="1339" height="212">
	<defs>
		<clipPath id="clip_0">
			<rect x="-1037.5469" y="-461.91553" width="3597.0903" height="7637.7119" clip-rule="evenodd"/>
		</clipPath>
	</defs>
	<g clip-path="url(#clip_0)">
		<path fill="rgb(23,36,59)" stroke="none" transform="matrix(0.9967 0 0 0.9967 2.01172 0.553223)" d="M0 1.52008L55.3034 108.645L0.497259 211.696L1338.57 211.696L1338.57 0L0 1.52008Z"/>
	</g>
</svg>
